Stats: More R & Quarto
…
mutate() adds new columns that are functions of existing columns

select() picks columns based on their names.

filter() picks rows based on their values.

summarise() reduces multiple values down to a single summary.

arrange() changes the ordering of the rows.

Example of selecting all but a few columns

(dfReduced <- df |> select(!c(PID,Order)))

# A tibble: 2,925 × 80
   MSSubClass MSZoning LotFrontage LotArea Street Alley LotShape LandContour
   <chr>      <chr>          <dbl>   <dbl> <chr>  <chr> <chr>    <chr>      
 1 020        RL               123   47007 Pave   <NA>  IR1      Lvl        
 2 075        RL                60   19800 Pave   <NA>  Reg      Lvl        
 3 060        RL               118   35760 Pave   <NA>  IR1      Lvl        
 4 075        RM                90   22950 Pave   <NA>  IR2      Lvl        
 5 060        RL               114   17242 Pave   <NA>  IR1      Lvl        
 6 075        RM                87   18386 Pave   <NA>  Reg      Lvl        
 7 050        RL                NA   14100 Pave   <NA>  IR1      Lvl        
 8 190        RH                60   10896 Pave   Pave  Reg      Bnk        
 9 060        RL                60   18062 Pave   <NA>  IR1      HLS        
10 060        RL                47   53504 Pave   <NA>  IR2      HLS        
# ℹ 2,915 more rows
# ℹ 72 more variables: Utilities <chr>, LotConfig <chr>, LandSlope <chr>,
#   Neighborhood <chr>, Condition1 <chr>, Condition2 <chr>, BldgType <chr>,
#   HouseStyle <chr>, OverallQual <dbl>, OverallCond <dbl>, YearBuilt <dbl>,
#   `YearRemod/Add` <dbl>, RoofStyle <chr>, RoofMatl <chr>, Exterior1st <chr>,
#   Exterior2nd <chr>, MasVnrType <chr>, MasVnrArea <dbl>, ExterQual <chr>,
#   ExterCond <chr>, Foundation <chr>, BsmtQual <chr>, BsmtCond <chr>, …
…
