Study Guide: Statistics for Informatics - 7 More about Inference
…
Note that, in the above example, I’ve stored df in vehicles.Rdata using the save() function. Before saving it I converted condition to a factor and both price and odometer to numeric.

7.1.2 Preparing data

Note that you can use the above quantile trick in other ways. For example, here I’m filtering out the extreme values of price, without necessarily knowing what they are.

df |>
  filter(price >= quantile(price,.10) & price <= quantile(price,.90)) |>
  count(state) |>
  arrange(-n) |>
  as_tibble() |>
  print(n=12)

# A tibble: 51 × 2
   state     n
   <chr> <int>
 1 ca    39707
 2 fl    23260
 3 tx    18285
 4 ny    15956
 5 oh    15086
 6 mi    14959
 7 pa    11787
 8 nc    11105
 9 or    10875
10 wi    10194
11 tn     9466
12 co     9335
# ℹ 39 more rows
…
