Study Guide: Statistics for Informatics - 3 More about R and Quarto
…
The number 404 is because there are 404 unique elements in the list, which you can find out by looking at the output of the count() function. Of course, in a report for a manager or recruiter I would be unlikely to print out a column of 404 numbers. A manager or recruiter would be more interested in some sort of summary. This is primarily for your preparation.

Another solution (more cumbersome) follows.

df %>%
  group_by(region) %>%
  do(data.frame(nrow=nrow(.))) %>%
  arrange(desc(nrow)) %>%
  print(n=40)

# A tibble: 404 × 2
# Groups:   region [404]
   region                    nrow
   <chr>                    <int>
 1 columbus                  3608
 2 jacksonville              3562
 3 spokane / coeur d'alene   2988
 4 eugene                    2985
 5 fresno / madera           2983
 6 orlando                   2983
 7 bend                      2982
 8 omaha / council bluffs    2982
 9 kennewick-pasco-richland  2981
10 new hampshire             2981
11 nashville                 2980
12 salem                     2980
13 oklahoma city             2979
14 reno / tahoe              2979
15 boston                    2978
16 rochester                 2978
17 sarasota-bradenton        2977
18 stockton                  2977
19 boise                     2976
20 portland                  2976
21 houston                   2975
22 south jersey              2974
23 minneapolis / st paul     2973
24 modesto                   2973
25 philadelphia              2973
26 seattle-tacoma            2973
27 grand rapids              2972
28 baltimore                 2971
29 las vegas                 2971
30 milwaukee                 2971
31 pittsburgh                2971
32 cincinnati                2970
33 sacramento                2970
34 tulsa                     2970
35 washington, DC            2970
36 austin                    2969
37 north jersey              2969
38 tucson                    2969
39 charlotte                 2968
40 maine                     2966
# ℹ 364 more rows
…
