Study Guide: Statistics for Informatics - 11 Coping with Time and Joins
…
ymd_hms("2017-01-31 20:11:59")

[1] "2017-01-31 20:11:59 UTC"

mdy_hm("01/31/2017 08:01")

[1] "2017-01-31 08:01:00 UTC"

The nycflights13 data frame, which we loaded above, contains information about 336,000 flights originating from the three NYC area airports in 2013. It contains dats and times spread across different columns.

flights |>
  select(year, month, day, hour, minute)

# A tibble: 336,776 × 5
    year month   day  hour minute
   <int> <int> <int> <dbl>  <dbl>
 1  2013     1     1     5     15
 2  2013     1     1     5     29
 3  2013     1     1     5     40
 4  2013     1     1     5     45
 5  2013     1     1     6      0
 6  2013     1     1     5     58
 7  2013     1     1     6      0
 8  2013     1     1     6      0
 9  2013     1     1     6      0
10  2013     1     1     6      0
# ℹ 336,766 more rows

You can handle this kind of input by using the make_datetime() function.

flights |>
  select(year, month, day, hour, minute) |>
  mutate(departure = make_datetime(year, month, day, hour, minute))

# A tibble: 336,776 × 6
    year month   day  hour minute departure          
   <int> <int> <int> <dbl>  <dbl> <dttm>             
 1  2013     1     1     5     15 2013-01-01 05:15:00
 2  2013     1     1     5     29 2013-01-01 05:29:00
 3  2013     1     1     5     40 2013-01-01 05:40:00
 4  2013     1     1     5     45 2013-01-01 05:45:00
 5  2013     1     1     6      0 2013-01-01 06:00:00
 6  2013     1     1     5     58 2013-01-01 05:58:00
 7  2013     1     1     6      0 2013-01-01 06:00:00
 8  2013     1     1     6      0 2013-01-01 06:00:00
 9  2013     1     1     6      0 2013-01-01 06:00:00
10  2013     1     1     6      0 2013-01-01 06:00:00
# ℹ 336,766 more rows
…
flights_dt <- flights |>
  filter(!is.na(dep_time), !is.na(arr_time)) |>
  mutate(
    dep_time = make_datetime_100(year, month, day, dep_time),
    arr_time = make_datetime_100(year, month, day, arr_time),
    sched_dep_time = make_datetime_100(year, month, day, sched_dep_time),
    sched_arr_time = make_datetime_100(year, month, day, sched_arr_time)
  ) |>
  select(origin, dest, ends_with("delay"), ends_with("time"))

flights_dt

# A tibble: 328,063 × 9
   origin dest  dep_delay arr_delay dep_time            sched_dep_time     
   <chr>  <chr>     <dbl>     <dbl> <dttm>              <dttm>             
 1 EWR    IAH           2        11 2013-01-01 05:17:00 2013-01-01 05:15:00
 2 LGA    IAH           4        20 2013-01-01 05:33:00 2013-01-01 05:29:00
 3 JFK    MIA           2        33 2013-01-01 05:42:00 2013-01-01 05:40:00
 4 JFK    BQN          -1       -18 2013-01-01 05:44:00 2013-01-01 05:45:00
 5 LGA    ATL          -6       -25 2013-01-01 05:54:00 2013-01-01 06:00:00
 6 EWR    ORD          -4        12 2013-01-01 05:54:00 2013-01-01 05:58:00
 7 EWR    FLL          -5        19 2013-01-01 05:55:00 2013-01-01 06:00:00
 8 LGA    IAD          -3       -14 2013-01-01 05:57:00 2013-01-01 06:00:00
 9 JFK    MCO          -3        -8 2013-01-01 05:57:00 2013-01-01 06:00:00
10 LGA    ORD          -2         8 2013-01-01 05:58:00 2013-01-01 06:00:00
# ℹ 328,053 more rows
# ℹ 3 more variables: arr_time <dttm>, sched_arr_time <dttm>, air_time <dbl>
…
#. Daylight Savings Time
one_am + ddays(1)

[1] "2026-03-09 02:00:00 EDT"

one_am + days(1)

[1] "2026-03-09 01:00:00 EDT"

Periods can fix the problem that some planes appear to arrive before they depart.

flights_dt |>
  filter(arr_time < dep_time)

# A tibble: 10,633 × 9
   origin dest  dep_delay arr_delay dep_time            sched_dep_time     
   <chr>  <chr>     <dbl>     <dbl> <dttm>              <dttm>             
 1 EWR    BQN           9        -4 2013-01-01 19:29:00 2013-01-01 19:20:00
 2 JFK    DFW          59        NA 2013-01-01 19:39:00 2013-01-01 18:40:00
 3 EWR    TPA          -2         9 2013-01-01 20:58:00 2013-01-01 21:00:00
 4 EWR    SJU          -6       -12 2013-01-01 21:02:00 2013-01-01 21:08:00
 5 EWR    SFO          11       -14 2013-01-01 21:08:00 2013-01-01 20:57:00
 6 LGA    FLL         -10        -2 2013-01-01 21:20:00 2013-01-01 21:30:00
 7 EWR    MCO          41        43 2013-01-01 21:21:00 2013-01-01 20:40:00
 8 JFK    LAX          -7       -24 2013-01-01 21:28:00 2013-01-01 21:35:00
 9 EWR    FLL          49        28 2013-01-01 21:34:00 2013-01-01 20:45:00
10 EWR    FLL          -9       -14 2013-01-01 21:36:00 2013-01-01 21:45:00
# ℹ 10,623 more rows
# ℹ 3 more variables: arr_time <dttm>, sched_arr_time <dttm>, air_time <dbl>
…
Why would you store data this way? (Think about using the data over a long term and think about maintenance of the data.)

You can add the airline names to the flights by a left_join() function. It’s easier to see if you first limit the flights data frame to a few essential columns.

flights2 <- flights |>
  select(year, time_hour, origin, dest, tailnum, carrier)
flights2 |> left_join(airlines)

# A tibble: 336,776 × 7
    year time_hour           origin dest  tailnum carrier name                  
   <int> <dttm>              <chr>  <chr> <chr>   <chr>   <chr>                 
 1  2013 2013-01-01 05:00:00 EWR    IAH   N14228  UA      United Air Lines Inc. 
 2  2013 2013-01-01 05:00:00 LGA    IAH   N24211  UA      United Air Lines Inc. 
 3  2013 2013-01-01 05:00:00 JFK    MIA   N619AA  AA      American Airlines Inc.
 4  2013 2013-01-01 05:00:00 JFK    BQN   N804JB  B6      JetBlue Airways       
 5  2013 2013-01-01 06:00:00 LGA    ATL   N668DN  DL      Delta Air Lines Inc.  
 6  2013 2013-01-01 05:00:00 EWR    ORD   N39463  UA      United Air Lines Inc. 
 7  2013 2013-01-01 06:00:00 EWR    FLL   N516JB  B6      JetBlue Airways       
 8  2013 2013-01-01 06:00:00 LGA    IAD   N829AS  EV      ExpressJet Airlines I…
 9  2013 2013-01-01 06:00:00 JFK    MCO   N593JB  B6      JetBlue Airways       
10  2013 2013-01-01 06:00:00 LGA    ORD   N3ALAA  AA      American Airlines Inc.
# ℹ 336,766 more rows
…
