Stats: Multiple Linear Regression; Logistic Regression
…
#. Train a logistic regression model
m <- logistic_reg(mixture = double(1), penalty = double(1)) |>
  set_engine("glmnet") |>
  set_mode("classification") |>
  fit(y ~ ., data = train)

#. Model summary
tidy(m)

# A tibble: 43 × 3
   term              estimate penalty
   <chr>                <dbl>   <dbl>
 1 (Intercept)      -2.59           0
 2 age              -0.000477       0
 3 jobblue-collar   -0.183          0
 4 jobentrepreneur  -0.206          0
 5 jobhousemaid     -0.270          0
 6 jobmanagement    -0.0190         0
 7 jobretired        0.360          0
 8 jobself-employed -0.101          0
 9 jobservices      -0.105          0
10 jobstudent        0.415          0
# ℹ 33 more rows
…
